<?xml version="1.0" encoding="UTF-8"?>
<Project>
   <description></description>
   <name>healthcare-cura</name>
   <tag></tag>
   <UUID>0ea62f67-d6de-46e4-b604-3a91d97d1865</UUID>
   <createdEdition>ENTERPRISE</createdEdition>
   <createdVersion>9.6.0</createdVersion>
   <freeLicense>false</freeLicense>
   <migratedVersion>5.9.0</migratedVersion>
   <modifiedEdition>ENTERPRISE</modifiedEdition>
   <modifiedVersion>9.6.0</modifiedVersion>
   <pageLoadTimeout>0</pageLoadTimeout>
   <projectFileLocation>C:\Users\lapto\git\healthcare-cura\healthcare-cura.prj</projectFileLocation>
   <sourceContent>
      <sourceFolderList>
         <sourceFolderConfiguration>
            <url>Include/scripts/groovy</url>
         </sourceFolderConfiguration>
      </sourceFolderList>
      <systemFolderList>
         <systemFolderConfiguration>
            <url>Include/scripts/groovy</url>
         </systemFolderConfiguration>
         <systemFolderConfiguration>
            <url>Include/features</url>
         </systemFolderConfiguration>
         <systemFolderConfiguration>
            <url>Include/config</url>
         </systemFolderConfiguration>
      </systemFolderList>
   </sourceContent>
   <timeStampInProperties>false</timeStampInProperties>
   <type>GENERIC</type>
</Project>
